{
"containerDefinitions": [
  {
    "name": "stream-prices-ftse100",
    "image": "025649667625.dkr.ecr.eu-west-2.amazonaws.com/stream-prices-ftse100",
    "essential": true,
    "memory": 64
  }
],
"family": "stream-prices-ftse100"
}
